2	1
30	2
105	3
164	4
319	5
370	6
381	7
386	8
389	9
390	10
395	11
408	12
412	13
421	14
425	15
426	16
433	17
440	18
442	19
443	20
447	21
449	22
451	23
451	24
463	25
491	26
493	27
498	28
499	29
510	30
512	31
519	32
520	33
537     34
551     35
551     36
555     37
564	38
564	39
569	40
577	41
578	42
584     43
584     44
