# SR785 Measurement - Timestamp: Jan 15 2019 - 02:56:25
# Parameter File: CARM_ErrorSpectrum_102p4kHz.yml
#---------- Measurement Setup ------------
# Start Frequency (Hz): 0.000000
# Frequency Span (Hz): 102400.000000
# Frequency Resolution: 800
# Number of Averages: 25
# Averaging Mode: RMS
# Window function: Hanning
#---------- Measurement Parameters ----------
# Measurement Group:  "FFT" "FFT"
# Measurements:  "FFT 1" "FFT 1"
# View:  "Log Magnitude" "Log Magnitude"
# Unit:  "Vrms/rtHz" "dBVpk"
#---------- Input Parameters ----------
# Input Source: Analog
# Input Mode: Single ended, Single ended
# Input Grounding: Float, Float
# Input Coupling: AC, AC
# Input Range: -50.0dBVpk, -50.0dBVpk
# Auto Range: On, On
# Auto Range Mode: Up Only, Normal
# Anti-Aliasing Filter: On, On
#---------- Source Parameters ----------
# Source Type: Sine
# Source Amplitude: 1000.0mVpk
# Source On: 0

#---------- Measurement Data ----------
# [Freq(Hz) Display 0(Vrms/rtHz) Display 1(dBVpk) ]
+0.0000000e+000    +1.7856948e-005
+1.2800000e+002    +8.9747627e-006
+2.5600000e+002    +3.8192059e-007
+3.8400000e+002    +2.4528359e-007
+5.1200000e+002    +2.3054933e-007
+6.4000000e+002    +2.0751023e-007
+7.6800000e+002    +2.2970971e-007
+8.9600000e+002    +2.1451309e-007
+1.0240000e+003    +2.3568172e-007
+1.1520000e+003    +1.9059743e-007
+1.2800000e+003    +2.1725647e-007
+1.4080000e+003    +2.3044078e-007
+1.5360000e+003    +2.1884087e-007
+1.6640000e+003    +2.0554876e-007
+1.7920000e+003    +1.9855491e-007
+1.9200000e+003    +1.7754019e-007
+2.0480000e+003    +1.9560005e-007
+2.1760000e+003    +2.0976913e-007
+2.3040000e+003    +2.1906276e-007
+2.4320000e+003    +2.1588943e-007
+2.5600000e+003    +1.9588224e-007
+2.6880000e+003    +1.8634840e-007
+2.8160000e+003    +2.0850116e-007
+2.9440000e+003    +2.2954281e-007
+3.0720000e+003    +2.3860960e-007
+3.2000000e+003    +2.6282794e-007
+3.3280000e+003    +2.3483500e-007
+3.4560000e+003    +2.2787968e-007
+3.5840000e+003    +2.1538986e-007
+3.7120000e+003    +1.9687147e-007
+3.8400000e+003    +2.2424797e-007
+3.9680000e+003    +2.3428902e-007
+4.0960000e+003    +2.5657621e-007
+4.2240000e+003    +2.5589006e-007
+4.3520000e+003    +2.6961271e-007
+4.4800000e+003    +2.3322364e-007
+4.6080000e+003    +2.4703166e-007
+4.7360000e+003    +2.6409609e-007
+4.8640000e+003    +2.2803185e-007
+4.9920000e+003    +1.9631544e-007
+5.1200000e+003    +2.1804196e-007
+5.2480000e+003    +1.9161172e-007
+5.3760000e+003    +2.0102468e-007
+5.5040000e+003    +2.0220409e-007
+5.6320000e+003    +2.1782827e-007
+5.7600000e+003    +2.1801132e-007
+5.8880000e+003    +2.2827433e-007
+6.0160000e+003    +2.3721940e-007
+6.1440000e+003    +2.3890900e-007
+6.2720000e+003    +2.2322801e-007
+6.4000000e+003    +1.9698130e-007
+6.5280000e+003    +1.8610201e-007
+6.6560000e+003    +1.8859569e-007
+6.7840000e+003    +2.1563784e-007
+6.9120000e+003    +2.3285315e-007
+7.0400000e+003    +2.1206893e-007
+7.1680000e+003    +2.1531561e-007
+7.2960000e+003    +1.7300857e-007
+7.4240000e+003    +1.7510615e-007
+7.5520000e+003    +2.4103764e-007
+7.6800000e+003    +2.7684271e-007
+7.8080000e+003    +2.7777378e-007
+7.9360000e+003    +2.6316522e-007
+8.0640000e+003    +2.5712839e-007
+8.1920000e+003    +2.2463708e-007
+8.3200000e+003    +2.2006876e-007
+8.4480000e+003    +2.1048595e-007
+8.5760000e+003    +1.9701677e-007
+8.7040000e+003    +2.0329333e-007
+8.8320000e+003    +2.3714857e-007
+8.9600000e+003    +2.1419231e-007
+9.0880000e+003    +2.2398737e-007
+9.2160000e+003    +2.6522096e-007
+9.3440000e+003    +2.7386932e-007
+9.4720000e+003    +2.2342809e-007
+9.6000000e+003    +2.0917507e-007
+9.7280000e+003    +2.2562904e-007
+9.8560000e+003    +2.5495422e-007
+9.9840000e+003    +2.8497720e-007
+1.0112000e+004    +2.5822612e-007
+1.0240000e+004    +2.3186584e-007
+1.0368000e+004    +2.1514735e-007
+1.0496000e+004    +2.1975124e-007
+1.0624000e+004    +1.9749564e-007
+1.0752000e+004    +2.3863711e-007
+1.0880000e+004    +2.5568841e-007
+1.1008000e+004    +2.2103495e-007
+1.1136000e+004    +2.1694493e-007
+1.1264000e+004    +2.0080230e-007
+1.1392000e+004    +2.0826025e-007
+1.1520000e+004    +2.3875506e-007
+1.1648000e+004    +1.9219557e-007
+1.1776000e+004    +1.9661699e-007
+1.1904000e+004    +2.3878493e-007
+1.2032000e+004    +2.5452684e-007
+1.2160000e+004    +2.3546446e-007
+1.2288000e+004    +2.0208269e-007
+1.2416000e+004    +2.0202191e-007
+1.2544000e+004    +2.0451861e-007
+1.2672000e+004    +2.0248380e-007
+1.2800000e+004    +2.4140311e-007
+1.2928000e+004    +2.2004097e-007
+1.3056000e+004    +2.3169635e-007
+1.3184000e+004    +2.3370016e-007
+1.3312000e+004    +2.4758452e-007
+1.3440000e+004    +2.5842581e-007
+1.3568000e+004    +1.9421121e-007
+1.3696000e+004    +2.1884735e-007
+1.3824000e+004    +2.2987194e-007
+1.3952000e+004    +2.2691221e-007
+1.4080000e+004    +2.2359620e-007
+1.4208000e+004    +2.2320620e-007
+1.4336000e+004    +2.6630906e-007
+1.4464000e+004    +2.8051099e-007
+1.4592000e+004    +2.3601862e-007
+1.4720000e+004    +2.3562868e-007
+1.4848000e+004    +1.8100137e-007
+1.4976000e+004    +1.6777183e-007
+1.5104000e+004    +2.1619091e-007
+1.5232000e+004    +2.2566050e-007
+1.5360000e+004    +1.8862116e-007
+1.5488000e+004    +2.0224428e-007
+1.5616000e+004    +2.0468552e-007
+1.5744000e+004    +2.0484380e-007
+1.5872000e+004    +2.2457098e-007
+1.6000000e+004    +2.6264763e-007
+1.6128000e+004    +2.6703958e-007
+1.6256000e+004    +2.3400212e-007
+1.6384000e+004    +1.9741715e-007
+1.6512000e+004    +2.2767810e-007
+1.6640000e+004    +2.3339656e-007
+1.6768000e+004    +2.1185669e-007
+1.6896000e+004    +2.0477140e-007
+1.7024000e+004    +2.1150086e-007
+1.7152000e+004    +1.8353064e-007
+1.7280000e+004    +2.2205148e-007
+1.7408000e+004    +2.1975269e-007
+1.7536000e+004    +2.1303860e-007
+1.7664000e+004    +2.4544684e-007
+1.7792000e+004    +2.4703928e-007
+1.7920000e+004    +2.0238045e-007
+1.8048000e+004    +1.7996597e-007
+1.8176000e+004    +2.0080341e-007
+1.8304000e+004    +2.1441772e-007
+1.8432000e+004    +2.0230070e-007
+1.8560000e+004    +1.9457981e-007
+1.8688000e+004    +2.0141594e-007
+1.8816000e+004    +1.9980122e-007
+1.8944000e+004    +2.2733788e-007
+1.9072000e+004    +2.2463684e-007
+1.9200000e+004    +1.9110306e-007
+1.9328000e+004    +2.0364965e-007
+1.9456000e+004    +2.1350482e-007
+1.9584000e+004    +2.3629399e-007
+1.9712000e+004    +2.3185565e-007
+1.9840000e+004    +2.1712722e-007
+1.9968000e+004    +1.9733979e-007
+2.0096000e+004    +2.4586274e-007
+2.0224000e+004    +2.6156098e-007
+2.0352000e+004    +2.2569048e-007
+2.0480000e+004    +2.0793033e-007
+2.0608000e+004    +2.3084696e-007
+2.0736000e+004    +2.1714010e-007
+2.0864000e+004    +2.1067092e-007
+2.0992000e+004    +2.2994995e-007
+2.1120000e+004    +2.1977054e-007
+2.1248000e+004    +2.0818274e-007
+2.1376000e+004    +2.2298427e-007
+2.1504000e+004    +2.2353066e-007
+2.1632000e+004    +2.3553970e-007
+2.1760000e+004    +2.2585880e-007
+2.1888000e+004    +2.1400237e-007
+2.2016000e+004    +2.0594634e-007
+2.2144000e+004    +1.8627640e-007
+2.2272000e+004    +2.1592356e-007
+2.2400000e+004    +2.1531609e-007
+2.2528000e+004    +2.0586947e-007
+2.2656000e+004    +1.9726743e-007
+2.2784000e+004    +2.2486410e-007
+2.2912000e+004    +2.3917985e-007
+2.3040000e+004    +2.5108199e-007
+2.3168000e+004    +2.4272109e-007
+2.3296000e+004    +2.2744848e-007
+2.3424000e+004    +2.0470237e-007
+2.3552000e+004    +2.0828266e-007
+2.3680000e+004    +2.0817886e-007
+2.3808000e+004    +2.1764349e-007
+2.3936000e+004    +2.2240185e-007
+2.4064000e+004    +2.2661467e-007
+2.4192000e+004    +2.0963213e-007
+2.4320000e+004    +2.3839043e-007
+2.4448000e+004    +2.2651194e-007
+2.4576000e+004    +2.1941781e-007
+2.4704000e+004    +2.3927623e-007
+2.4832000e+004    +2.3453687e-007
+2.4960000e+004    +2.0203721e-007
+2.5088000e+004    +1.7413831e-007
+2.5216000e+004    +1.8835958e-007
+2.5344000e+004    +2.0779657e-007
+2.5472000e+004    +2.3166379e-007
+2.5600000e+004    +2.3827162e-007
+2.5728000e+004    +2.3671777e-007
+2.5856000e+004    +2.2182851e-007
+2.5984000e+004    +2.2342736e-007
+2.6112000e+004    +2.4762664e-007
+2.6240000e+004    +2.2118304e-007
+2.6368000e+004    +2.1913974e-007
+2.6496000e+004    +2.4284398e-007
+2.6624000e+004    +2.1958989e-007
+2.6752000e+004    +2.0933497e-007
+2.6880000e+004    +2.6225374e-007
+2.7008000e+004    +2.5272180e-007
+2.7136000e+004    +1.9145105e-007
+2.7264000e+004    +2.0953848e-007
+2.7392000e+004    +2.2520408e-007
+2.7520000e+004    +1.9994935e-007
+2.7648000e+004    +2.1862520e-007
+2.7776000e+004    +2.3940947e-007
+2.7904000e+004    +2.6047312e-007
+2.8032000e+004    +2.4200739e-007
+2.8160000e+004    +2.3273634e-007
+2.8288000e+004    +2.3781999e-007
+2.8416000e+004    +2.3372864e-007
+2.8544000e+004    +2.2396254e-007
+2.8672000e+004    +2.0021055e-007
+2.8800000e+004    +1.9824603e-007
+2.8928000e+004    +2.0329266e-007
+2.9056000e+004    +2.0486787e-007
+2.9184000e+004    +2.1210735e-007
+2.9312000e+004    +2.1206706e-007
+2.9440000e+004    +1.8702687e-007
+2.9568000e+004    +2.1874814e-007
+2.9696000e+004    +2.2491521e-007
+2.9824000e+004    +2.1663644e-007
+2.9952000e+004    +2.2446918e-007
+3.0080000e+004    +2.6580253e-007
+3.0208000e+004    +2.6484645e-007
+3.0336000e+004    +1.9818096e-007
+3.0464000e+004    +2.2701911e-007
+3.0592000e+004    +2.7671265e-007
+3.0720000e+004    +2.3842446e-007
+3.0848000e+004    +2.1494903e-007
+3.0976000e+004    +2.0711552e-007
+3.1104000e+004    +2.0739110e-007
+3.1232000e+004    +2.4052238e-007
+3.1360000e+004    +2.3212795e-007
+3.1488000e+004    +2.0964204e-007
+3.1616000e+004    +1.9562754e-007
+3.1744000e+004    +2.1181715e-007
+3.1872000e+004    +2.2268480e-007
+3.2000000e+004    +2.4927948e-007
+3.2128000e+004    +2.4674895e-007
+3.2256000e+004    +2.2975158e-007
+3.2384000e+004    +2.4161659e-007
+3.2512000e+004    +2.3519702e-007
+3.2640000e+004    +1.9548433e-007
+3.2768000e+004    +2.0585523e-007
+3.2896000e+004    +1.9821535e-007
+3.3024000e+004    +2.4462116e-007
+3.3152000e+004    +2.1348067e-007
+3.3280000e+004    +2.1336984e-007
+3.3408000e+004    +1.7283543e-007
+3.3536000e+004    +2.1654822e-007
+3.3664000e+004    +2.5128386e-007
+3.3792000e+004    +2.5589904e-007
+3.3920000e+004    +2.7059909e-007
+3.4048000e+004    +2.5508638e-007
+3.4176000e+004    +2.6714753e-007
+3.4304000e+004    +2.4658212e-007
+3.4432000e+004    +2.5077370e-007
+3.4560000e+004    +2.3492164e-007
+3.4688000e+004    +2.3714362e-007
+3.4816000e+004    +2.0220342e-007
+3.4944000e+004    +1.8986515e-007
+3.5072000e+004    +2.0005278e-007
+3.5200000e+004    +1.9879006e-007
+3.5328000e+004    +2.2009895e-007
+3.5456000e+004    +2.0922744e-007
+3.5584000e+004    +1.8656192e-007
+3.5712000e+004    +2.1143771e-007
+3.5840000e+004    +2.2265620e-007
+3.5968000e+004    +2.3198271e-007
+3.6096000e+004    +2.5701775e-007
+3.6224000e+004    +2.2816208e-007
+3.6352000e+004    +2.2277162e-007
+3.6480000e+004    +2.0015671e-007
+3.6608000e+004    +1.8743101e-007
+3.6736000e+004    +2.0514766e-007
+3.6864000e+004    +2.6077987e-007
+3.6992000e+004    +2.3747921e-007
+3.7120000e+004    +2.3649461e-007
+3.7248000e+004    +2.2276942e-007
+3.7376000e+004    +2.0075932e-007
+3.7504000e+004    +1.8008100e-007
+3.7632000e+004    +1.9054784e-007
+3.7760000e+004    +2.2173306e-007
+3.7888000e+004    +2.2740979e-007
+3.8016000e+004    +2.2661941e-007
+3.8144000e+004    +2.1988205e-007
+3.8272000e+004    +1.9767852e-007
+3.8400000e+004    +2.2099297e-007
+3.8528000e+004    +2.0763922e-007
+3.8656000e+004    +2.0749131e-007
+3.8784000e+004    +2.1900263e-007
+3.8912000e+004    +2.2692466e-007
+3.9040000e+004    +2.1864297e-007
+3.9168000e+004    +1.7740710e-007
+3.9296000e+004    +2.3529233e-007
+3.9424000e+004    +2.4227617e-007
+3.9552000e+004    +2.3585412e-007
+3.9680000e+004    +2.3564809e-007
+3.9808000e+004    +2.2484755e-007
+3.9936000e+004    +2.1317899e-007
+4.0064000e+004    +2.3325643e-007
+4.0192000e+004    +2.5262611e-007
+4.0320000e+004    +2.1647215e-007
+4.0448000e+004    +2.2142214e-007
+4.0576000e+004    +2.1457551e-007
+4.0704000e+004    +2.0245224e-007
+4.0832000e+004    +2.2324419e-007
+4.0960000e+004    +2.4046324e-007
+4.1088000e+004    +1.9317913e-007
+4.1216000e+004    +2.2581119e-007
+4.1344000e+004    +2.5980361e-007
+4.1472000e+004    +2.4147232e-007
+4.1600000e+004    +2.0629759e-007
+4.1728000e+004    +2.1224155e-007
+4.1856000e+004    +2.2611164e-007
+4.1984000e+004    +2.0306734e-007
+4.2112000e+004    +2.0387472e-007
+4.2240000e+004    +2.1920663e-007
+4.2368000e+004    +2.2815883e-007
+4.2496000e+004    +2.1443279e-007
+4.2624000e+004    +2.4259188e-007
+4.2752000e+004    +2.4532531e-007
+4.2880000e+004    +2.1735691e-007
+4.3008000e+004    +1.8331436e-007
+4.3136000e+004    +1.9709034e-007
+4.3264000e+004    +2.5845617e-007
+4.3392000e+004    +2.2475452e-007
+4.3520000e+004    +1.8932307e-007
+4.3648000e+004    +2.4204698e-007
+4.3776000e+004    +2.5693029e-007
+4.3904000e+004    +2.6040792e-007
+4.4032000e+004    +2.6697333e-007
+4.4160000e+004    +2.7138339e-007
+4.4288000e+004    +2.2338860e-007
+4.4416000e+004    +2.1381706e-007
+4.4544000e+004    +1.9954034e-007
+4.4672000e+004    +2.3100466e-007
+4.4800000e+004    +2.6011159e-007
+4.4928000e+004    +2.4321326e-007
+4.5056000e+004    +2.0884369e-007
+4.5184000e+004    +2.0690642e-007
+4.5312000e+004    +2.2652114e-007
+4.5440000e+004    +2.4814486e-007
+4.5568000e+004    +2.3347755e-007
+4.5696000e+004    +2.2102112e-007
+4.5824000e+004    +2.0385681e-007
+4.5952000e+004    +2.3818113e-007
+4.6080000e+004    +2.5142489e-007
+4.6208000e+004    +2.3407252e-007
+4.6336000e+004    +2.2120636e-007
+4.6464000e+004    +2.5468785e-007
+4.6592000e+004    +2.4181588e-007
+4.6720000e+004    +2.0818251e-007
+4.6848000e+004    +2.4008625e-007
+4.6976000e+004    +2.5273485e-007
+4.7104000e+004    +2.2265986e-007
+4.7232000e+004    +2.1044390e-007
+4.7360000e+004    +2.2324835e-007
+4.7488000e+004    +2.2303398e-007
+4.7616000e+004    +2.1485016e-007
+4.7744000e+004    +2.2464694e-007
+4.7872000e+004    +2.4145029e-007
+4.8000000e+004    +2.0073354e-007
+4.8128000e+004    +2.2874376e-007
+4.8256000e+004    +2.6905380e-007
+4.8384000e+004    +2.5362218e-007
+4.8512000e+004    +2.3629035e-007
+4.8640000e+004    +2.4151473e-007
+4.8768000e+004    +2.3139204e-007
+4.8896000e+004    +2.3501968e-007
+4.9024000e+004    +2.4217167e-007
+4.9152000e+004    +2.4157890e-007
+4.9280000e+004    +2.5556940e-007
+4.9408000e+004    +2.2558123e-007
+4.9536000e+004    +2.1175693e-007
+4.9664000e+004    +2.0034909e-007
+4.9792000e+004    +2.3207978e-007
+4.9920000e+004    +2.1818205e-007
+5.0048000e+004    +2.2443984e-007
+5.0176000e+004    +2.2070709e-007
+5.0304000e+004    +2.0458060e-007
+5.0432000e+004    +2.2943395e-007
+5.0560000e+004    +2.6014757e-007
+5.0688000e+004    +2.5300918e-007
+5.0816000e+004    +2.3034667e-007
+5.0944000e+004    +2.2160381e-007
+5.1072000e+004    +2.3617493e-007
+5.1200000e+004    +2.3318934e-007
+5.1328000e+004    +2.1986781e-007
+5.1456000e+004    +1.9778902e-007
+5.1584000e+004    +2.0432380e-007
+5.1712000e+004    +2.2104733e-007
+5.1840000e+004    +2.4630424e-007
+5.1968000e+004    +2.5453579e-007
+5.2096000e+004    +2.2985175e-007
+5.2224000e+004    +2.4416579e-007
+5.2352000e+004    +2.4703385e-007
+5.2480000e+004    +2.3147234e-007
+5.2608000e+004    +2.3658136e-007
+5.2736000e+004    +2.2503008e-007
+5.2864000e+004    +2.4165612e-007
+5.2992000e+004    +2.2113569e-007
+5.3120000e+004    +2.0314829e-007
+5.3248000e+004    +2.2456211e-007
+5.3376000e+004    +2.2094615e-007
+5.3504000e+004    +1.9106635e-007
+5.3632000e+004    +2.0690824e-007
+5.3760000e+004    +2.4011155e-007
+5.3888000e+004    +2.2976570e-007
+5.4016000e+004    +2.5323595e-007
+5.4144000e+004    +2.4249175e-007
+5.4272000e+004    +2.4010680e-007
+5.4400000e+004    +2.3921399e-007
+5.4528000e+004    +2.1778690e-007
+5.4656000e+004    +2.1403245e-007
+5.4784000e+004    +2.1123653e-007
+5.4912000e+004    +2.4814349e-007
+5.5040000e+004    +2.1267566e-007
+5.5168000e+004    +2.5515359e-007
+5.5296000e+004    +2.4836646e-007
+5.5424000e+004    +1.8645441e-007
+5.5552000e+004    +2.0117967e-007
+5.5680000e+004    +2.5717810e-007
+5.5808000e+004    +2.2079361e-007
+5.5936000e+004    +1.9568618e-007
+5.6064000e+004    +2.1304983e-007
+5.6192000e+004    +2.9802828e-007
+5.6320000e+004    +2.4707265e-007
+5.6448000e+004    +1.8849032e-007
+5.6576000e+004    +1.9503112e-007
+5.6704000e+004    +2.1737672e-007
+5.6832000e+004    +2.0533402e-007
+5.6960000e+004    +2.0942232e-007
+5.7088000e+004    +2.0149977e-007
+5.7216000e+004    +2.0345878e-007
+5.7344000e+004    +2.1252276e-007
+5.7472000e+004    +2.1759188e-007
+5.7600000e+004    +2.0181018e-007
+5.7728000e+004    +1.7254153e-007
+5.7856000e+004    +2.3908925e-007
+5.7984000e+004    +2.3905986e-007
+5.8112000e+004    +2.0607459e-007
+5.8240000e+004    +1.7347764e-007
+5.8368000e+004    +1.8644008e-007
+5.8496000e+004    +2.2066638e-007
+5.8624000e+004    +2.4901087e-007
+5.8752000e+004    +2.6142433e-007
+5.8880000e+004    +2.2852763e-007
+5.9008000e+004    +2.0129545e-007
+5.9136000e+004    +1.9091704e-007
+5.9264000e+004    +2.0203855e-007
+5.9392000e+004    +2.0133457e-007
+5.9520000e+004    +1.7593366e-007
+5.9648000e+004    +2.0423498e-007
+5.9776000e+004    +2.1367133e-007
+5.9904000e+004    +2.5628933e-007
+6.0032000e+004    +2.7091181e-007
+6.0160000e+004    +2.3498099e-007
+6.0288000e+004    +2.2915904e-007
+6.0416000e+004    +2.4433393e-007
+6.0544000e+004    +2.3558651e-007
+6.0672000e+004    +1.9265595e-007
+6.0800000e+004    +1.8898497e-007
+6.0928000e+004    +2.2691619e-007
+6.1056000e+004    +2.3957696e-007
+6.1184000e+004    +2.2956372e-007
+6.1312000e+004    +2.4548052e-007
+6.1440000e+004    +2.4284051e-007
+6.1568000e+004    +2.4482591e-007
+6.1696000e+004    +2.2620723e-007
+6.1824000e+004    +2.1137596e-007
+6.1952000e+004    +2.1952842e-007
+6.2080000e+004    +2.1607060e-007
+6.2208000e+004    +2.1940794e-007
+6.2336000e+004    +2.3004438e-007
+6.2464000e+004    +2.3424040e-007
+6.2592000e+004    +2.5211349e-007
+6.2720000e+004    +2.1218491e-007
+6.2848000e+004    +2.3196107e-007
+6.2976000e+004    +2.4259907e-007
+6.3104000e+004    +2.4310248e-007
+6.3232000e+004    +2.0062556e-007
+6.3360000e+004    +2.1121426e-007
+6.3488000e+004    +2.5461404e-007
+6.3616000e+004    +2.5632423e-007
+6.3744000e+004    +2.5775620e-007
+6.3872000e+004    +2.6043995e-007
+6.4000000e+004    +2.2751418e-007
+6.4128000e+004    +1.9728650e-007
+6.4256000e+004    +1.9701980e-007
+6.4384000e+004    +2.3119954e-007
+6.4512000e+004    +2.3742342e-007
+6.4640000e+004    +2.9377944e-007
+6.4768000e+004    +2.7067395e-007
+6.4896000e+004    +2.3645775e-007
+6.5024000e+004    +2.2518999e-007
+6.5152000e+004    +2.3485383e-007
+6.5280000e+004    +2.4846847e-007
+6.5408000e+004    +2.3386752e-007
+6.5536000e+004    +2.6615561e-007
+6.5664000e+004    +2.4743233e-007
+6.5792000e+004    +2.3310486e-007
+6.5920000e+004    +2.6343668e-007
+6.6048000e+004    +2.2594436e-007
+6.6176000e+004    +1.9382925e-007
+6.6304000e+004    +1.9529448e-007
+6.6432000e+004    +2.0308651e-007
+6.6560000e+004    +2.2485595e-007
+6.6688000e+004    +2.5259172e-007
+6.6816000e+004    +2.3481103e-007
+6.6944000e+004    +2.2261953e-007
+6.7072000e+004    +2.1063275e-007
+6.7200000e+004    +2.6862404e-007
+6.7328000e+004    +2.3510692e-007
+6.7456000e+004    +2.5234556e-007
+6.7584000e+004    +2.6697012e-007
+6.7712000e+004    +2.5983385e-007
+6.7840000e+004    +2.1537473e-007
+6.7968000e+004    +1.9354471e-007
+6.8096000e+004    +2.2063730e-007
+6.8224000e+004    +2.3561911e-007
+6.8352000e+004    +2.5751010e-007
+6.8480000e+004    +2.4206906e-007
+6.8608000e+004    +2.4563445e-007
+6.8736000e+004    +2.3745054e-007
+6.8864000e+004    +2.5664301e-007
+6.8992000e+004    +2.4048040e-007
+6.9120000e+004    +2.5827603e-007
+6.9248000e+004    +2.4533125e-007
+6.9376000e+004    +2.1180273e-007
+6.9504000e+004    +2.2348158e-007
+6.9632000e+004    +2.3605594e-007
+6.9760000e+004    +2.1375698e-007
+6.9888000e+004    +2.0407627e-007
+7.0016000e+004    +2.2619382e-007
+7.0144000e+004    +2.4482617e-007
+7.0272000e+004    +2.4494420e-007
+7.0400000e+004    +2.1733663e-007
+7.0528000e+004    +2.0823144e-007
+7.0656000e+004    +2.5576477e-007
+7.0784000e+004    +2.5280534e-007
+7.0912000e+004    +2.3399723e-007
+7.1040000e+004    +2.2572097e-007
+7.1168000e+004    +2.4826642e-007
+7.1296000e+004    +2.4225463e-007
+7.1424000e+004    +2.6821820e-007
+7.1552000e+004    +2.6351361e-007
+7.1680000e+004    +2.1837690e-007
+7.1808000e+004    +2.1836875e-007
+7.1936000e+004    +2.1789836e-007
+7.2064000e+004    +2.0870706e-007
+7.2192000e+004    +2.0339334e-007
+7.2320000e+004    +2.1005238e-007
+7.2448000e+004    +2.1339491e-007
+7.2576000e+004    +2.1452063e-007
+7.2704000e+004    +2.0167241e-007
+7.2832000e+004    +2.2891159e-007
+7.2960000e+004    +2.5791869e-007
+7.3088000e+004    +2.4649847e-007
+7.3216000e+004    +2.3621227e-007
+7.3344000e+004    +2.2222562e-007
+7.3472000e+004    +2.6213138e-007
+7.3600000e+004    +2.6188599e-007
+7.3728000e+004    +2.0548197e-007
+7.3856000e+004    +2.0826940e-007
+7.3984000e+004    +2.6478421e-007
+7.4112000e+004    +2.3032922e-007
+7.4240000e+004    +2.4995424e-007
+7.4368000e+004    +2.3194654e-007
+7.4496000e+004    +2.0757722e-007
+7.4624000e+004    +2.1584393e-007
+7.4752000e+004    +2.3207519e-007
+7.4880000e+004    +2.4110540e-007
+7.5008000e+004    +2.3364065e-007
+7.5136000e+004    +2.3857214e-007
+7.5264000e+004    +2.1264763e-007
+7.5392000e+004    +2.2819616e-007
+7.5520000e+004    +2.3027940e-007
+7.5648000e+004    +1.8957519e-007
+7.5776000e+004    +2.3207494e-007
+7.5904000e+004    +2.5545549e-007
+7.6032000e+004    +2.2146688e-007
+7.6160000e+004    +2.2158095e-007
+7.6288000e+004    +2.3428233e-007
+7.6416000e+004    +2.0016550e-007
+7.6544000e+004    +2.0966046e-007
+7.6672000e+004    +2.2583599e-007
+7.6800000e+004    +2.3317705e-007
+7.6928000e+004    +2.1310457e-007
+7.7056000e+004    +2.1889085e-007
+7.7184000e+004    +2.4465552e-007
+7.7312000e+004    +2.3187805e-007
+7.7440000e+004    +2.3085457e-007
+7.7568000e+004    +2.4269684e-007
+7.7696000e+004    +2.0401176e-007
+7.7824000e+004    +2.2508914e-007
+7.7952000e+004    +2.5159721e-007
+7.8080000e+004    +2.1996367e-007
+7.8208000e+004    +1.8139289e-007
+7.8336000e+004    +2.1131771e-007
+7.8464000e+004    +2.1678491e-007
+7.8592000e+004    +2.0670252e-007
+7.8720000e+004    +2.2687708e-007
+7.8848000e+004    +2.3556944e-007
+7.8976000e+004    +2.4701541e-007
+7.9104000e+004    +2.3757310e-007
+7.9232000e+004    +2.4442571e-007
+7.9360000e+004    +2.3896538e-007
+7.9488000e+004    +2.4647520e-007
+7.9616000e+004    +2.2461512e-007
+7.9744000e+004    +2.4705255e-007
+7.9872000e+004    +2.0124727e-007
+8.0000000e+004    +1.9771606e-007
+8.0128000e+004    +2.2503995e-007
+8.0256000e+004    +2.0677334e-007
+8.0384000e+004    +2.0900059e-007
+8.0512000e+004    +2.2116508e-007
+8.0640000e+004    +2.3189715e-007
+8.0768000e+004    +2.8306687e-007
+8.0896000e+004    +2.6139563e-007
+8.1024000e+004    +2.1593803e-007
+8.1152000e+004    +2.2733913e-007
+8.1280000e+004    +2.1710267e-007
+8.1408000e+004    +2.2882088e-007
+8.1536000e+004    +2.4139942e-007
+8.1664000e+004    +2.1073014e-007
+8.1792000e+004    +2.1597099e-007
+8.1920000e+004    +2.1433488e-007
+8.2048000e+004    +1.9441154e-007
+8.2176000e+004    +1.9479785e-007
+8.2304000e+004    +2.2933951e-007
+8.2432000e+004    +2.6130925e-007
+8.2560000e+004    +2.2870709e-007
+8.2688000e+004    +2.1401013e-007
+8.2816000e+004    +1.9674722e-007
+8.2944000e+004    +2.3285725e-007
+8.3072000e+004    +2.0696186e-007
+8.3200000e+004    +2.1855848e-007
+8.3328000e+004    +2.1947370e-007
+8.3456000e+004    +2.3571769e-007
+8.3584000e+004    +2.5244364e-007
+8.3712000e+004    +2.0709255e-007
+8.3840000e+004    +1.9168473e-007
+8.3968000e+004    +2.0054320e-007
+8.4096000e+004    +2.0121369e-007
+8.4224000e+004    +2.7168869e-007
+8.4352000e+004    +2.9356178e-007
+8.4480000e+004    +2.3287565e-007
+8.4608000e+004    +2.2839116e-007
+8.4736000e+004    +2.1950841e-007
+8.4864000e+004    +1.9729104e-007
+8.4992000e+004    +1.9269423e-007
+8.5120000e+004    +1.9005702e-007
+8.5248000e+004    +2.1899783e-007
+8.5376000e+004    +2.4472862e-007
+8.5504000e+004    +2.1725455e-007
+8.5632000e+004    +2.1947997e-007
+8.5760000e+004    +2.5120139e-007
+8.5888000e+004    +2.6294165e-007
+8.6016000e+004    +2.5597745e-007
+8.6144000e+004    +2.4348981e-007
+8.6272000e+004    +2.1811115e-007
+8.6400000e+004    +2.4334523e-007
+8.6528000e+004    +2.4665712e-007
+8.6656000e+004    +2.0246490e-007
+8.6784000e+004    +2.4907322e-007
+8.6912000e+004    +2.8673796e-007
+8.7040000e+004    +2.3197177e-007
+8.7168000e+004    +2.0318041e-007
+8.7296000e+004    +2.3713946e-007
+8.7424000e+004    +2.2767735e-007
+8.7552000e+004    +2.1669686e-007
+8.7680000e+004    +1.7921667e-007
+8.7808000e+004    +1.7862202e-007
+8.7936000e+004    +2.1532129e-007
+8.8064000e+004    +2.0564175e-007
+8.8192000e+004    +2.1677778e-007
+8.8320000e+004    +2.3013052e-007
+8.8448000e+004    +2.0447236e-007
+8.8576000e+004    +1.7215872e-007
+8.8704000e+004    +2.3465432e-007
+8.8832000e+004    +2.6128114e-007
+8.8960000e+004    +2.2792547e-007
+8.9088000e+004    +2.2451675e-007
+8.9216000e+004    +2.3885232e-007
+8.9344000e+004    +2.3641778e-007
+8.9472000e+004    +2.1585814e-007
+8.9600000e+004    +1.9350433e-007
+8.9728000e+004    +2.2224050e-007
+8.9856000e+004    +2.1338319e-007
+8.9984000e+004    +2.5690011e-007
+9.0112000e+004    +2.6484614e-007
+9.0240000e+004    +2.2020822e-007
+9.0368000e+004    +2.1618830e-007
+9.0496000e+004    +2.4360693e-007
+9.0624000e+004    +2.0282624e-007
+9.0752000e+004    +2.1743639e-007
+9.0880000e+004    +2.1930076e-007
+9.1008000e+004    +2.3317935e-007
+9.1136000e+004    +2.3758849e-007
+9.1264000e+004    +2.4602045e-007
+9.1392000e+004    +2.2383986e-007
+9.1520000e+004    +1.9729451e-007
+9.1648000e+004    +1.9735279e-007
+9.1776000e+004    +2.3417405e-007
+9.1904000e+004    +2.3410003e-007
+9.2032000e+004    +2.2835029e-007
+9.2160000e+004    +2.1613229e-007
+9.2288000e+004    +1.8707389e-007
+9.2416000e+004    +2.0071546e-007
+9.2544000e+004    +2.0498307e-007
+9.2672000e+004    +2.4056700e-007
+9.2800000e+004    +2.4325041e-007
+9.2928000e+004    +2.1982991e-007
+9.3056000e+004    +2.0896755e-007
+9.3184000e+004    +2.4026426e-007
+9.3312000e+004    +2.4779013e-007
+9.3440000e+004    +2.3673206e-007
+9.3568000e+004    +2.1946022e-007
+9.3696000e+004    +2.3139991e-007
+9.3824000e+004    +2.2399254e-007
+9.3952000e+004    +2.0020593e-007
+9.4080000e+004    +1.9245468e-007
+9.4208000e+004    +1.7787285e-007
+9.4336000e+004    +2.5154114e-007
+9.4464000e+004    +2.4407385e-007
+9.4592000e+004    +2.2125226e-007
+9.4720000e+004    +2.4123275e-007
+9.4848000e+004    +2.8832719e-007
+9.4976000e+004    +2.3571847e-007
+9.5104000e+004    +2.3565144e-007
+9.5232000e+004    +2.4520818e-007
+9.5360000e+004    +2.5698304e-007
+9.5488000e+004    +2.6498051e-007
+9.5616000e+004    +2.4576340e-007
+9.5744000e+004    +2.4230306e-007
+9.5872000e+004    +2.8797791e-007
+9.6000000e+004    +2.8600661e-007
+9.6128000e+004    +2.5704992e-007
+9.6256000e+004    +2.1652728e-007
+9.6384000e+004    +2.0747012e-007
+9.6512000e+004    +2.1917390e-007
+9.6640000e+004    +1.8282290e-007
+9.6768000e+004    +2.1431275e-007
+9.6896000e+004    +2.2804362e-007
+9.7024000e+004    +2.1693468e-007
+9.7152000e+004    +2.1649615e-007
+9.7280000e+004    +2.0630529e-007
+9.7408000e+004    +2.2025053e-007
+9.7536000e+004    +2.6938960e-007
+9.7664000e+004    +2.6292926e-007
+9.7792000e+004    +2.4809256e-007
+9.7920000e+004    +2.2874677e-007
+9.8048000e+004    +2.5992802e-007
+9.8176000e+004    +2.3130110e-007
+9.8304000e+004    +2.1821344e-007
+9.8432000e+004    +2.3708478e-007
+9.8560000e+004    +2.3730198e-007
+9.8688000e+004    +2.1719779e-007
+9.8816000e+004    +2.1501984e-007
+9.8944000e+004    +2.1897162e-007
+9.9072000e+004    +2.3289125e-007
+9.9200000e+004    +2.4128786e-007
+9.9328000e+004    +2.3973064e-007
+9.9456000e+004    +2.4082757e-007
+9.9584000e+004    +2.0836065e-007
+9.9712000e+004    +1.9636846e-007
+9.9840000e+004    +2.7931270e-007
+9.9968000e+004    +2.8476953e-007
+1.0009600e+005    +2.0285341e-007
+1.0022400e+005    +2.4591591e-007
+1.0035200e+005    +2.3231968e-007
+1.0048000e+005    +2.4172829e-007
+1.0060800e+005    +2.0528330e-007
+1.0073600e+005    +2.1927885e-007
+1.0086400e+005    +2.4338718e-007
+1.0099200e+005    +2.5318533e-007
+1.0112000e+005    +2.3123484e-007
+1.0124800e+005    +2.2451182e-007
+1.0137600e+005    +2.0522334e-007
+1.0150400e+005    +2.2773236e-007
+1.0163200e+005    +2.4115491e-007
+1.0176000e+005    +2.2516947e-007
+1.0188800e+005    +2.2262857e-007
+1.0201600e+005    +2.2186796e-007
+1.0214400e+005    +2.4325922e-007
+1.0227200e+005    +2.4830621e-007
