# SR785 Measurement - Timestamp: Jan 15 2019 - 02:42:49
# Parameter File: CARM_ErrorSpectrum_102p4kHz.yml
#---------- Measurement Setup ------------
# Start Frequency (Hz): 0.000000
# Frequency Span (Hz): 102400.000000
# Frequency Resolution: 800
# Number of Averages: 25
# Averaging Mode: RMS
# Window function: Hanning
#---------- Measurement Parameters ----------
# Measurement Group:  "FFT" "FFT"
# Measurements:  "FFT 1" "FFT 1"
# View:  "Log Magnitude" "Log Magnitude"
# Unit:  "Vrms/rtHz" "dBVpk"
#---------- Input Parameters ----------
# Input Source: Analog
# Input Mode: Single ended, Single ended
# Input Grounding: Float, Float
# Input Coupling: AC, AC
# Input Range: -50.0dBVpk, -50.0dBVpk
# Auto Range: On, On
# Auto Range Mode: Up Only, Normal
# Anti-Aliasing Filter: On, On
#---------- Source Parameters ----------
# Source Type: Sine
# Source Amplitude: 1000.0mVpk
# Source On: 0

#---------- Measurement Data ----------
# [Freq(Hz) Display 0(Vrms/rtHz) Display 1(dBVpk) ]
+0.0000000e+000    +1.1419943e-005
+1.2800000e+002    +5.7064844e-006
+2.5600000e+002    +4.2309850e-007
+3.8400000e+002    +2.0296169e-007
+5.1200000e+002    +1.7415724e-007
+6.4000000e+002    +1.8299903e-007
+7.6800000e+002    +1.6897846e-007
+8.9600000e+002    +1.6179258e-007
+1.0240000e+003    +1.7522308e-007
+1.1520000e+003    +1.5969451e-007
+1.2800000e+003    +1.6905028e-007
+1.4080000e+003    +1.8266540e-007
+1.5360000e+003    +1.8541347e-007
+1.6640000e+003    +1.5435745e-007
+1.7920000e+003    +1.4192615e-007
+1.9200000e+003    +1.6638390e-007
+2.0480000e+003    +1.5334830e-007
+2.1760000e+003    +1.3644505e-007
+2.3040000e+003    +1.3877708e-007
+2.4320000e+003    +1.3214387e-007
+2.5600000e+003    +1.3324326e-007
+2.6880000e+003    +1.7787363e-007
+2.8160000e+003    +1.6142830e-007
+2.9440000e+003    +1.7534683e-007
+3.0720000e+003    +1.6417688e-007
+3.2000000e+003    +1.6053465e-007
+3.3280000e+003    +1.5717501e-007
+3.4560000e+003    +1.7114533e-007
+3.5840000e+003    +1.6157406e-007
+3.7120000e+003    +1.6446266e-007
+3.8400000e+003    +1.4737672e-007
+3.9680000e+003    +1.7924914e-007
+4.0960000e+003    +1.6392309e-007
+4.2240000e+003    +1.4014907e-007
+4.3520000e+003    +1.5557433e-007
+4.4800000e+003    +1.7738061e-007
+4.6080000e+003    +1.6422484e-007
+4.7360000e+003    +1.6033455e-007
+4.8640000e+003    +1.7651509e-007
+4.9920000e+003    +1.8416549e-007
+5.1200000e+003    +1.8814998e-007
+5.2480000e+003    +1.8904910e-007
+5.3760000e+003    +1.5044614e-007
+5.5040000e+003    +1.7998929e-007
+5.6320000e+003    +1.7110042e-007
+5.7600000e+003    +1.7051474e-007
+5.8880000e+003    +1.6464460e-007
+6.0160000e+003    +1.4297531e-007
+6.1440000e+003    +1.6099465e-007
+6.2720000e+003    +1.8673406e-007
+6.4000000e+003    +1.9853596e-007
+6.5280000e+003    +2.0520645e-007
+6.6560000e+003    +1.8525881e-007
+6.7840000e+003    +1.6899386e-007
+6.9120000e+003    +1.6953915e-007
+7.0400000e+003    +1.6459489e-007
+7.1680000e+003    +1.4594167e-007
+7.2960000e+003    +1.5914438e-007
+7.4240000e+003    +1.7299945e-007
+7.5520000e+003    +1.6344343e-007
+7.6800000e+003    +1.4962544e-007
+7.8080000e+003    +1.4051871e-007
+7.9360000e+003    +1.7785410e-007
+8.0640000e+003    +1.7530871e-007
+8.1920000e+003    +1.8620993e-007
+8.3200000e+003    +1.4963645e-007
+8.4480000e+003    +1.4060777e-007
+8.5760000e+003    +1.7002773e-007
+8.7040000e+003    +1.6633238e-007
+8.8320000e+003    +1.7413716e-007
+8.9600000e+003    +1.7404236e-007
+9.0880000e+003    +1.6544011e-007
+9.2160000e+003    +1.5294037e-007
+9.3440000e+003    +1.4555937e-007
+9.4720000e+003    +1.6376821e-007
+9.6000000e+003    +1.6355078e-007
+9.7280000e+003    +1.8848742e-007
+9.8560000e+003    +1.8334052e-007
+9.9840000e+003    +1.7784942e-007
+1.0112000e+004    +1.5229809e-007
+1.0240000e+004    +1.7615865e-007
+1.0368000e+004    +1.8822789e-007
+1.0496000e+004    +1.4330472e-007
+1.0624000e+004    +1.3375569e-007
+1.0752000e+004    +1.4385711e-007
+1.0880000e+004    +1.5385778e-007
+1.1008000e+004    +1.8789028e-007
+1.1136000e+004    +1.8250202e-007
+1.1264000e+004    +1.8210049e-007
+1.1392000e+004    +1.7603510e-007
+1.1520000e+004    +1.6932967e-007
+1.1648000e+004    +1.6123469e-007
+1.1776000e+004    +1.5354254e-007
+1.1904000e+004    +1.7228712e-007
+1.2032000e+004    +1.7634346e-007
+1.2160000e+004    +1.5096488e-007
+1.2288000e+004    +1.6513722e-007
+1.2416000e+004    +1.7801489e-007
+1.2544000e+004    +1.5971625e-007
+1.2672000e+004    +1.5759838e-007
+1.2800000e+004    +1.7492629e-007
+1.2928000e+004    +1.9418391e-007
+1.3056000e+004    +1.5717949e-007
+1.3184000e+004    +1.4915845e-007
+1.3312000e+004    +1.6676194e-007
+1.3440000e+004    +1.7413277e-007
+1.3568000e+004    +1.8300526e-007
+1.3696000e+004    +1.8271635e-007
+1.3824000e+004    +1.8539575e-007
+1.3952000e+004    +1.7385003e-007
+1.4080000e+004    +1.6035391e-007
+1.4208000e+004    +1.6739354e-007
+1.4336000e+004    +1.5761550e-007
+1.4464000e+004    +1.8870878e-007
+1.4592000e+004    +1.6056850e-007
+1.4720000e+004    +1.4568008e-007
+1.4848000e+004    +1.3745233e-007
+1.4976000e+004    +1.4248762e-007
+1.5104000e+004    +1.7150367e-007
+1.5232000e+004    +1.7404751e-007
+1.5360000e+004    +1.3808264e-007
+1.5488000e+004    +1.7897656e-007
+1.5616000e+004    +1.4742285e-007
+1.5744000e+004    +1.5540549e-007
+1.5872000e+004    +1.5192731e-007
+1.6000000e+004    +1.4791054e-007
+1.6128000e+004    +1.4519065e-007
+1.6256000e+004    +1.4759664e-007
+1.6384000e+004    +1.7514402e-007
+1.6512000e+004    +1.7154643e-007
+1.6640000e+004    +1.7845069e-007
+1.6768000e+004    +1.9216075e-007
+1.6896000e+004    +1.5617452e-007
+1.7024000e+004    +1.3054603e-007
+1.7152000e+004    +1.3642229e-007
+1.7280000e+004    +1.3783151e-007
+1.7408000e+004    +1.3757509e-007
+1.7536000e+004    +1.4744793e-007
+1.7664000e+004    +1.5557757e-007
+1.7792000e+004    +1.3625328e-007
+1.7920000e+004    +1.5708012e-007
+1.8048000e+004    +1.2255089e-007
+1.8176000e+004    +1.5240849e-007
+1.8304000e+004    +1.6090416e-007
+1.8432000e+004    +1.5525897e-007
+1.8560000e+004    +1.5477016e-007
+1.8688000e+004    +1.6309029e-007
+1.8816000e+004    +1.3943522e-007
+1.8944000e+004    +1.2735045e-007
+1.9072000e+004    +1.5919383e-007
+1.9200000e+004    +1.6117062e-007
+1.9328000e+004    +1.6153751e-007
+1.9456000e+004    +1.5659829e-007
+1.9584000e+004    +1.6384698e-007
+1.9712000e+004    +1.4093668e-007
+1.9840000e+004    +1.7264425e-007
+1.9968000e+004    +1.5908603e-007
+2.0096000e+004    +1.7196319e-007
+2.0224000e+004    +1.7139017e-007
+2.0352000e+004    +1.6532771e-007
+2.0480000e+004    +1.7041947e-007
+2.0608000e+004    +1.7882728e-007
+2.0736000e+004    +1.4840083e-007
+2.0864000e+004    +1.7317392e-007
+2.0992000e+004    +1.8012905e-007
+2.1120000e+004    +1.5889627e-007
+2.1248000e+004    +1.5705770e-007
+2.1376000e+004    +1.7285004e-007
+2.1504000e+004    +1.6998723e-007
+2.1632000e+004    +1.6840171e-007
+2.1760000e+004    +1.7893511e-007
+2.1888000e+004    +1.7117408e-007
+2.2016000e+004    +1.7306120e-007
+2.2144000e+004    +1.4886135e-007
+2.2272000e+004    +1.4923447e-007
+2.2400000e+004    +1.5350277e-007
+2.2528000e+004    +1.6582109e-007
+2.2656000e+004    +1.5277925e-007
+2.2784000e+004    +1.4372560e-007
+2.2912000e+004    +1.7148956e-007
+2.3040000e+004    +1.6048108e-007
+2.3168000e+004    +1.4064960e-007
+2.3296000e+004    +1.5754215e-007
+2.3424000e+004    +1.6530974e-007
+2.3552000e+004    +1.6652810e-007
+2.3680000e+004    +1.5986643e-007
+2.3808000e+004    +1.7546142e-007
+2.3936000e+004    +1.8949444e-007
+2.4064000e+004    +1.6395387e-007
+2.4192000e+004    +1.3988773e-007
+2.4320000e+004    +1.7172960e-007
+2.4448000e+004    +1.6521484e-007
+2.4576000e+004    +1.4127333e-007
+2.4704000e+004    +1.7072962e-007
+2.4832000e+004    +1.6991221e-007
+2.4960000e+004    +1.7000664e-007
+2.5088000e+004    +1.6133953e-007
+2.5216000e+004    +1.5771850e-007
+2.5344000e+004    +1.8158659e-007
+2.5472000e+004    +1.8814688e-007
+2.5600000e+004    +1.4556544e-007
+2.5728000e+004    +1.7294211e-007
+2.5856000e+004    +1.8225032e-007
+2.5984000e+004    +1.7647012e-007
+2.6112000e+004    +1.8210689e-007
+2.6240000e+004    +1.6631340e-007
+2.6368000e+004    +1.8731787e-007
+2.6496000e+004    +1.8622526e-007
+2.6624000e+004    +1.6473085e-007
+2.6752000e+004    +1.5008531e-007
+2.6880000e+004    +1.7350831e-007
+2.7008000e+004    +1.7321176e-007
+2.7136000e+004    +1.6006349e-007
+2.7264000e+004    +1.4745798e-007
+2.7392000e+004    +1.5965909e-007
+2.7520000e+004    +1.6292491e-007
+2.7648000e+004    +1.5332220e-007
+2.7776000e+004    +1.5677824e-007
+2.7904000e+004    +1.5478972e-007
+2.8032000e+004    +1.6555150e-007
+2.8160000e+004    +1.5171078e-007
+2.8288000e+004    +1.5723991e-007
+2.8416000e+004    +1.4215088e-007
+2.8544000e+004    +1.8446580e-007
+2.8672000e+004    +1.8032614e-007
+2.8800000e+004    +1.6675003e-007
+2.8928000e+004    +1.6494423e-007
+2.9056000e+004    +1.6570080e-007
+2.9184000e+004    +1.7806454e-007
+2.9312000e+004    +1.6631230e-007
+2.9440000e+004    +1.8009247e-007
+2.9568000e+004    +1.5895158e-007
+2.9696000e+004    +1.6024444e-007
+2.9824000e+004    +1.7164723e-007
+2.9952000e+004    +1.6255969e-007
+3.0080000e+004    +1.6486040e-007
+3.0208000e+004    +1.7395638e-007
+3.0336000e+004    +1.4917975e-007
+3.0464000e+004    +1.5714360e-007
+3.0592000e+004    +1.7780354e-007
+3.0720000e+004    +1.6717092e-007
+3.0848000e+004    +1.6976061e-007
+3.0976000e+004    +1.7091867e-007
+3.1104000e+004    +1.6295425e-007
+3.1232000e+004    +1.5585609e-007
+3.1360000e+004    +1.6314455e-007
+3.1488000e+004    +1.7163366e-007
+3.1616000e+004    +1.5919470e-007
+3.1744000e+004    +1.7355289e-007
+3.1872000e+004    +1.7878075e-007
+3.2000000e+004    +1.8173178e-007
+3.2128000e+004    +1.7160012e-007
+3.2256000e+004    +1.4283205e-007
+3.2384000e+004    +1.3808189e-007
+3.2512000e+004    +1.6346119e-007
+3.2640000e+004    +1.6542558e-007
+3.2768000e+004    +1.6704817e-007
+3.2896000e+004    +1.8171961e-007
+3.3024000e+004    +1.7996715e-007
+3.3152000e+004    +1.6308438e-007
+3.3280000e+004    +1.7533971e-007
+3.3408000e+004    +1.5965314e-007
+3.3536000e+004    +1.7615710e-007
+3.3664000e+004    +1.7771747e-007
+3.3792000e+004    +1.8216089e-007
+3.3920000e+004    +1.8079936e-007
+3.4048000e+004    +1.8014369e-007
+3.4176000e+004    +1.4940349e-007
+3.4304000e+004    +1.8831656e-007
+3.4432000e+004    +2.2013013e-007
+3.4560000e+004    +2.0640384e-007
+3.4688000e+004    +1.6732039e-007
+3.4816000e+004    +1.4713453e-007
+3.4944000e+004    +1.5285359e-007
+3.5072000e+004    +1.7199642e-007
+3.5200000e+004    +1.7542077e-007
+3.5328000e+004    +1.8008140e-007
+3.5456000e+004    +1.5168547e-007
+3.5584000e+004    +1.7434492e-007
+3.5712000e+004    +1.6696474e-007
+3.5840000e+004    +1.5698632e-007
+3.5968000e+004    +1.7434492e-007
+3.6096000e+004    +1.5267143e-007
+3.6224000e+004    +1.5035283e-007
+3.6352000e+004    +1.4621851e-007
+3.6480000e+004    +1.5755495e-007
+3.6608000e+004    +1.7168510e-007
+3.6736000e+004    +1.8565791e-007
+3.6864000e+004    +1.5717310e-007
+3.6992000e+004    +1.6240269e-007
+3.7120000e+004    +1.6551370e-007
+3.7248000e+004    +1.7338338e-007
+3.7376000e+004    +1.7013362e-007
+3.7504000e+004    +1.5792124e-007
+3.7632000e+004    +1.7844344e-007
+3.7760000e+004    +1.9598592e-007
+3.7888000e+004    +1.9645063e-007
+3.8016000e+004    +1.8727118e-007
+3.8144000e+004    +1.6971775e-007
+3.8272000e+004    +1.6019378e-007
+3.8400000e+004    +1.8130528e-007
+3.8528000e+004    +1.4311163e-007
+3.8656000e+004    +1.4681098e-007
+3.8784000e+004    +1.4609815e-007
+3.8912000e+004    +1.5937081e-007
+3.9040000e+004    +1.6872949e-007
+3.9168000e+004    +1.8811652e-007
+3.9296000e+004    +1.7428941e-007
+3.9424000e+004    +1.6465852e-007
+3.9552000e+004    +1.7885182e-007
+3.9680000e+004    +1.9273105e-007
+3.9808000e+004    +1.5711875e-007
+3.9936000e+004    +1.5538075e-007
+4.0064000e+004    +1.7622442e-007
+4.0192000e+004    +1.6933711e-007
+4.0320000e+004    +1.6244906e-007
+4.0448000e+004    +1.8248799e-007
+4.0576000e+004    +1.5923997e-007
+4.0704000e+004    +1.5394988e-007
+4.0832000e+004    +1.6916559e-007
+4.0960000e+004    +1.6053606e-007
+4.1088000e+004    +1.6856191e-007
+4.1216000e+004    +1.9571068e-007
+4.1344000e+004    +1.8258058e-007
+4.1472000e+004    +1.5306117e-007
+4.1600000e+004    +1.5913722e-007
+4.1728000e+004    +1.6479380e-007
+4.1856000e+004    +1.6449516e-007
+4.1984000e+004    +1.5619597e-007
+4.2112000e+004    +1.5688070e-007
+4.2240000e+004    +1.4962757e-007
+4.2368000e+004    +1.6588447e-007
+4.2496000e+004    +1.4318708e-007
+4.2624000e+004    +1.5720158e-007
+4.2752000e+004    +1.6540851e-007
+4.2880000e+004    +1.5885841e-007
+4.3008000e+004    +1.6493952e-007
+4.3136000e+004    +1.7085094e-007
+4.3264000e+004    +1.6968012e-007
+4.3392000e+004    +1.7456003e-007
+4.3520000e+004    +1.8219009e-007
+4.3648000e+004    +1.6122478e-007
+4.3776000e+004    +1.4730085e-007
+4.3904000e+004    +1.7919621e-007
+4.4032000e+004    +1.8749770e-007
+4.4160000e+004    +1.7219047e-007
+4.4288000e+004    +1.6934993e-007
+4.4416000e+004    +1.6859245e-007
+4.4544000e+004    +1.7006396e-007
+4.4672000e+004    +1.8987619e-007
+4.4800000e+004    +1.6127488e-007
+4.4928000e+004    +1.5473653e-007
+4.5056000e+004    +1.6598922e-007
+4.5184000e+004    +1.9642410e-007
+4.5312000e+004    +1.8890344e-007
+4.5440000e+004    +1.4994136e-007
+4.5568000e+004    +1.4541017e-007
+4.5696000e+004    +1.7998829e-007
+4.5824000e+004    +1.5868497e-007
+4.5952000e+004    +1.4491640e-007
+4.6080000e+004    +1.3959574e-007
+4.6208000e+004    +1.3995347e-007
+4.6336000e+004    +1.8516283e-007
+4.6464000e+004    +2.0128749e-007
+4.6592000e+004    +1.7475217e-007
+4.6720000e+004    +1.7263211e-007
+4.6848000e+004    +1.3014717e-007
+4.6976000e+004    +1.5677377e-007
+4.7104000e+004    +1.8712545e-007
+4.7232000e+004    +1.8481734e-007
+4.7360000e+004    +1.4690643e-007
+4.7488000e+004    +1.7561483e-007
+4.7616000e+004    +1.9781160e-007
+4.7744000e+004    +1.7453338e-007
+4.7872000e+004    +1.6738397e-007
+4.8000000e+004    +1.9236573e-007
+4.8128000e+004    +1.7312107e-007
+4.8256000e+004    +1.6531283e-007
+4.8384000e+004    +1.6087714e-007
+4.8512000e+004    +1.4776299e-007
+4.8640000e+004    +1.4967276e-007
+4.8768000e+004    +1.5439677e-007
+4.8896000e+004    +1.5075469e-007
+4.9024000e+004    +1.5235160e-007
+4.9152000e+004    +1.4229251e-007
+4.9280000e+004    +1.5141241e-007
+4.9408000e+004    +1.3936787e-007
+4.9536000e+004    +1.5436100e-007
+4.9664000e+004    +1.5614914e-007
+4.9792000e+004    +1.8190227e-007
+4.9920000e+004    +1.8828493e-007
+5.0048000e+004    +1.7895672e-007
+5.0176000e+004    +1.7235882e-007
+5.0304000e+004    +1.8095983e-007
+5.0432000e+004    +1.5608212e-007
+5.0560000e+004    +1.4932051e-007
+5.0688000e+004    +1.8711437e-007
+5.0816000e+004    +1.7865105e-007
+5.0944000e+004    +1.4829885e-007
+5.1072000e+004    +1.5568283e-007
+5.1200000e+004    +1.6733694e-007
+5.1328000e+004    +1.5405438e-007
+5.1456000e+004    +1.6371786e-007
+5.1584000e+004    +1.4569240e-007
+5.1712000e+004    +1.5504416e-007
+5.1840000e+004    +1.6667755e-007
+5.1968000e+004    +1.5993456e-007
+5.2096000e+004    +1.7333751e-007
+5.2224000e+004    +1.9233468e-007
+5.2352000e+004    +1.9460204e-007
+5.2480000e+004    +1.7674819e-007
+5.2608000e+004    +1.9763728e-007
+5.2736000e+004    +2.1872820e-007
+5.2864000e+004    +1.6116000e-007
+5.2992000e+004    +1.6319095e-007
+5.3120000e+004    +1.6420266e-007
+5.3248000e+004    +1.6440200e-007
+5.3376000e+004    +1.4505140e-007
+5.3504000e+004    +1.6247492e-007
+5.3632000e+004    +1.7820693e-007
+5.3760000e+004    +1.5212444e-007
+5.3888000e+004    +1.5979711e-007
+5.4016000e+004    +1.8294439e-007
+5.4144000e+004    +1.6758625e-007
+5.4272000e+004    +1.3109327e-007
+5.4400000e+004    +1.5180059e-007
+5.4528000e+004    +1.8138591e-007
+5.4656000e+004    +1.7187013e-007
+5.4784000e+004    +1.7273373e-007
+5.4912000e+004    +1.5227016e-007
+5.5040000e+004    +1.4176713e-007
+5.5168000e+004    +1.3299581e-007
+5.5296000e+004    +1.6076854e-007
+5.5424000e+004    +1.4542773e-007
+5.5552000e+004    +1.7218801e-007
+5.5680000e+004    +1.9144306e-007
+5.5808000e+004    +1.8599681e-007
+5.5936000e+004    +1.6920980e-007
+5.6064000e+004    +1.3398306e-007
+5.6192000e+004    +1.7042098e-007
+5.6320000e+004    +1.8615985e-007
+5.6448000e+004    +1.8981616e-007
+5.6576000e+004    +1.7843345e-007
+5.6704000e+004    +1.8506709e-007
+5.6832000e+004    +1.6307112e-007
+5.6960000e+004    +1.3692409e-007
+5.7088000e+004    +1.5692670e-007
+5.7216000e+004    +1.6268378e-007
+5.7344000e+004    +1.6513214e-007
+5.7472000e+004    +1.5878953e-007
+5.7600000e+004    +1.8162187e-007
+5.7728000e+004    +1.8476317e-007
+5.7856000e+004    +1.6435472e-007
+5.7984000e+004    +1.5404626e-007
+5.8112000e+004    +1.7276257e-007
+5.8240000e+004    +1.7686001e-007
+5.8368000e+004    +1.6208152e-007
+5.8496000e+004    +1.6709036e-007
+5.8624000e+004    +1.6338835e-007
+5.8752000e+004    +2.0122209e-007
+5.8880000e+004    +1.9576333e-007
+5.9008000e+004    +1.8564671e-007
+5.9136000e+004    +1.8539393e-007
+5.9264000e+004    +1.3485013e-007
+5.9392000e+004    +1.5603193e-007
+5.9520000e+004    +1.9842547e-007
+5.9648000e+004    +1.9524774e-007
+5.9776000e+004    +1.5796286e-007
+5.9904000e+004    +1.7359807e-007
+6.0032000e+004    +1.7723421e-007
+6.0160000e+004    +1.5775315e-007
+6.0288000e+004    +1.7185843e-007
+6.0416000e+004    +1.7639303e-007
+6.0544000e+004    +2.0192766e-007
+6.0672000e+004    +2.0354280e-007
+6.0800000e+004    +1.7670570e-007
+6.0928000e+004    +1.7121769e-007
+6.1056000e+004    +1.8195860e-007
+6.1184000e+004    +1.6741853e-007
+6.1312000e+004    +1.3582684e-007
+6.1440000e+004    +1.6310103e-007
+6.1568000e+004    +1.6093792e-007
+6.1696000e+004    +1.6187504e-007
+6.1824000e+004    +1.7519383e-007
+6.1952000e+004    +1.5521381e-007
+6.2080000e+004    +1.6529032e-007
+6.2208000e+004    +1.6452027e-007
+6.2336000e+004    +1.7881275e-007
+6.2464000e+004    +1.4925627e-007
+6.2592000e+004    +1.5886975e-007
+6.2720000e+004    +1.6326695e-007
+6.2848000e+004    +1.8362114e-007
+6.2976000e+004    +1.6102346e-007
+6.3104000e+004    +1.5372001e-007
+6.3232000e+004    +1.7769015e-007
+6.3360000e+004    +1.8328799e-007
+6.3488000e+004    +1.7427870e-007
+6.3616000e+004    +1.8354959e-007
+6.3744000e+004    +1.7339291e-007
+6.3872000e+004    +1.6490765e-007
+6.4000000e+004    +1.4039873e-007
+6.4128000e+004    +1.7694664e-007
+6.4256000e+004    +1.5916203e-007
+6.4384000e+004    +1.5618619e-007
+6.4512000e+004    +1.7137323e-007
+6.4640000e+004    +1.6112426e-007
+6.4768000e+004    +1.5803451e-007
+6.4896000e+004    +1.7466317e-007
+6.5024000e+004    +1.8209050e-007
+6.5152000e+004    +1.6483796e-007
+6.5280000e+004    +1.7026144e-007
+6.5408000e+004    +1.7536588e-007
+6.5536000e+004    +1.5953994e-007
+6.5664000e+004    +1.6322643e-007
+6.5792000e+004    +1.8170783e-007
+6.5920000e+004    +1.9485239e-007
+6.6048000e+004    +1.6075847e-007
+6.6176000e+004    +1.2475388e-007
+6.6304000e+004    +1.5440220e-007
+6.6432000e+004    +1.5256319e-007
+6.6560000e+004    +1.4969659e-007
+6.6688000e+004    +1.6651786e-007
+6.6816000e+004    +1.7148447e-007
+6.6944000e+004    +1.6910876e-007
+6.7072000e+004    +1.5503055e-007
+6.7200000e+004    +1.1449748e-007
+6.7328000e+004    +1.5563396e-007
+6.7456000e+004    +1.6090257e-007
+6.7584000e+004    +1.7412358e-007
+6.7712000e+004    +1.8953003e-007
+6.7840000e+004    +1.7307640e-007
+6.7968000e+004    +1.6252380e-007
+6.8096000e+004    +1.6496125e-007
+6.8224000e+004    +1.6757245e-007
+6.8352000e+004    +1.7444238e-007
+6.8480000e+004    +1.8810722e-007
+6.8608000e+004    +1.7352508e-007
+6.8736000e+004    +1.9840672e-007
+6.8864000e+004    +2.1160562e-007
+6.8992000e+004    +1.6894637e-007
+6.9120000e+004    +1.4275132e-007
+6.9248000e+004    +1.5229023e-007
+6.9376000e+004    +1.4706217e-007
+6.9504000e+004    +1.5323167e-007
+6.9632000e+004    +1.7270585e-007
+6.9760000e+004    +1.6467804e-007
+6.9888000e+004    +1.8375546e-007
+7.0016000e+004    +1.5624845e-007
+7.0144000e+004    +1.3985148e-007
+7.0272000e+004    +1.7136608e-007
+7.0400000e+004    +1.8771254e-007
+7.0528000e+004    +1.5411528e-007
+7.0656000e+004    +1.7843757e-007
+7.0784000e+004    +1.9641267e-007
+7.0912000e+004    +1.5186194e-007
+7.1040000e+004    +1.6454827e-007
+7.1168000e+004    +1.5164584e-007
+7.1296000e+004    +1.5805169e-007
+7.1424000e+004    +1.4576231e-007
+7.1552000e+004    +1.4808441e-007
+7.1680000e+004    +1.8615127e-007
+7.1808000e+004    +1.9249525e-007
+7.1936000e+004    +1.4164019e-007
+7.2064000e+004    +1.8209990e-007
+7.2192000e+004    +1.8061306e-007
+7.2320000e+004    +1.8527467e-007
+7.2448000e+004    +1.7516768e-007
+7.2576000e+004    +1.6087625e-007
+7.2704000e+004    +1.4542726e-007
+7.2832000e+004    +1.4911899e-007
+7.2960000e+004    +1.7096559e-007
+7.3088000e+004    +2.0170961e-007
+7.3216000e+004    +1.9610130e-007
+7.3344000e+004    +1.8073844e-007
+7.3472000e+004    +1.7302644e-007
+7.3600000e+004    +1.6807162e-007
+7.3728000e+004    +1.7395486e-007
+7.3856000e+004    +1.6119876e-007
+7.3984000e+004    +1.8735510e-007
+7.4112000e+004    +1.8945408e-007
+7.4240000e+004    +1.7501965e-007
+7.4368000e+004    +1.8988287e-007
+7.4496000e+004    +1.5914158e-007
+7.4624000e+004    +1.7531391e-007
+7.4752000e+004    +1.6845830e-007
+7.4880000e+004    +1.5603827e-007
+7.5008000e+004    +1.9412657e-007
+7.5136000e+004    +1.9537404e-007
+7.5264000e+004    +1.5598071e-007
+7.5392000e+004    +1.8655761e-007
+7.5520000e+004    +1.6024919e-007
+7.5648000e+004    +1.6048337e-007
+7.5776000e+004    +1.8607055e-007
+7.5904000e+004    +1.8820225e-007
+7.6032000e+004    +1.8616598e-007
+7.6160000e+004    +1.7436541e-007
+7.6288000e+004    +1.5156243e-007
+7.6416000e+004    +1.4978340e-007
+7.6544000e+004    +1.7648912e-007
+7.6672000e+004    +1.3266431e-007
+7.6800000e+004    +1.4719092e-007
+7.6928000e+004    +2.0503101e-007
+7.7056000e+004    +1.9404624e-007
+7.7184000e+004    +1.9730859e-007
+7.7312000e+004    +1.8728454e-007
+7.7440000e+004    +1.5065723e-007
+7.7568000e+004    +1.6693963e-007
+7.7696000e+004    +2.0055377e-007
+7.7824000e+004    +2.0616466e-007
+7.7952000e+004    +1.7227160e-007
+7.8080000e+004    +1.5861947e-007
+7.8208000e+004    +1.6458785e-007
+7.8336000e+004    +1.7287832e-007
+7.8464000e+004    +1.7828462e-007
+7.8592000e+004    +1.9714552e-007
+7.8720000e+004    +1.6521793e-007
+7.8848000e+004    +1.4721419e-007
+7.8976000e+004    +1.5593260e-007
+7.9104000e+004    +1.4140694e-007
+7.9232000e+004    +1.5456146e-007
+7.9360000e+004    +1.5263255e-007
+7.9488000e+004    +1.5669461e-007
+7.9616000e+004    +1.6184288e-007
+7.9744000e+004    +1.4898168e-007
+7.9872000e+004    +1.4981629e-007
+8.0000000e+004    +1.3968359e-007
+8.0128000e+004    +1.6621154e-007
+8.0256000e+004    +1.7560924e-007
+8.0384000e+004    +1.6365406e-007
+8.0512000e+004    +1.5767124e-007
+8.0640000e+004    +1.5854495e-007
+8.0768000e+004    +1.5806731e-007
+8.0896000e+004    +1.5645857e-007
+8.1024000e+004    +1.8029289e-007
+8.1152000e+004    +1.9255675e-007
+8.1280000e+004    +1.9802957e-007
+8.1408000e+004    +1.5459659e-007
+8.1536000e+004    +1.4786345e-007
+8.1664000e+004    +1.6374429e-007
+8.1792000e+004    +1.7642363e-007
+8.1920000e+004    +1.7074161e-007
+8.2048000e+004    +1.6211658e-007
+8.2176000e+004    +1.3739184e-007
+8.2304000e+004    +1.4022280e-007
+8.2432000e+004    +1.7769776e-007
+8.2560000e+004    +1.7480532e-007
+8.2688000e+004    +1.5395479e-007
+8.2816000e+004    +1.6426866e-007
+8.2944000e+004    +1.5855052e-007
+8.3072000e+004    +1.7107320e-007
+8.3200000e+004    +1.7614182e-007
+8.3328000e+004    +1.7473683e-007
+8.3456000e+004    +1.7089015e-007
+8.3584000e+004    +1.4463537e-007
+8.3712000e+004    +1.6265288e-007
+8.3840000e+004    +1.9652268e-007
+8.3968000e+004    +2.0704277e-007
+8.4096000e+004    +1.9219621e-007
+8.4224000e+004    +1.8018997e-007
+8.4352000e+004    +1.4713615e-007
+8.4480000e+004    +1.5590999e-007
+8.4608000e+004    +1.5952347e-007
+8.4736000e+004    +1.8757265e-007
+8.4864000e+004    +1.6611412e-007
+8.4992000e+004    +1.4360792e-007
+8.5120000e+004    +1.5784583e-007
+8.5248000e+004    +1.4344435e-007
+8.5376000e+004    +1.6459543e-007
+8.5504000e+004    +1.7266662e-007
+8.5632000e+004    +1.5328921e-007
+8.5760000e+004    +1.3216389e-007
+8.5888000e+004    +1.3870716e-007
+8.6016000e+004    +1.4045578e-007
+8.6144000e+004    +1.6094074e-007
+8.6272000e+004    +1.7810873e-007
+8.6400000e+004    +1.6710119e-007
+8.6528000e+004    +1.7265391e-007
+8.6656000e+004    +1.8001339e-007
+8.6784000e+004    +1.7344641e-007
+8.6912000e+004    +1.8883169e-007
+8.7040000e+004    +1.7680817e-007
+8.7168000e+004    +1.6079149e-007
+8.7296000e+004    +1.5756412e-007
+8.7424000e+004    +1.7172111e-007
+8.7552000e+004    +1.5050033e-007
+8.7680000e+004    +1.2690839e-007
+8.7808000e+004    +1.3132565e-007
+8.7936000e+004    +1.8053910e-007
+8.8064000e+004    +1.7776040e-007
+8.8192000e+004    +1.5356750e-007
+8.8320000e+004    +1.9581084e-007
+8.8448000e+004    +1.8612837e-007
+8.8576000e+004    +1.6690537e-007
+8.8704000e+004    +1.9373394e-007
+8.8832000e+004    +1.7962287e-007
+8.8960000e+004    +1.9792871e-007
+8.9088000e+004    +1.9286081e-007
+8.9216000e+004    +1.5789628e-007
+8.9344000e+004    +1.7904044e-007
+8.9472000e+004    +2.0915164e-007
+8.9600000e+004    +2.1461699e-007
+8.9728000e+004    +1.7537302e-007
+8.9856000e+004    +1.6215841e-007
+8.9984000e+004    +1.6159943e-007
+9.0112000e+004    +1.5395749e-007
+9.0240000e+004    +1.7610604e-007
+9.0368000e+004    +1.8889806e-007
+9.0496000e+004    +1.7530409e-007
+9.0624000e+004    +1.8548697e-007
+9.0752000e+004    +1.8092963e-007
+9.0880000e+004    +1.5116723e-007
+9.1008000e+004    +1.6245441e-007
+9.1136000e+004    +1.3548754e-007
+9.1264000e+004    +1.6943233e-007
+9.1392000e+004    +1.8658281e-007
+9.1520000e+004    +1.7058703e-007
+9.1648000e+004    +2.0437854e-007
+9.1776000e+004    +1.7576374e-007
+9.1904000e+004    +1.7182465e-007
+9.2032000e+004    +1.7246577e-007
+9.2160000e+004    +1.7617123e-007
+9.2288000e+004    +1.9209263e-007
+9.2416000e+004    +1.9368693e-007
+9.2544000e+004    +1.6791927e-007
+9.2672000e+004    +1.6010199e-007
+9.2800000e+004    +1.5690603e-007
+9.2928000e+004    +1.6758902e-007
+9.3056000e+004    +1.5523358e-007
+9.3184000e+004    +1.6274684e-007
+9.3312000e+004    +1.8718751e-007
+9.3440000e+004    +1.6663051e-007
+9.3568000e+004    +1.2904597e-007
+9.3696000e+004    +1.5918440e-007
+9.3824000e+004    +1.6094498e-007
+9.3952000e+004    +1.2590178e-007
+9.4080000e+004    +1.3517388e-007
+9.4208000e+004    +1.6124690e-007
+9.4336000e+004    +1.6381136e-007
+9.4464000e+004    +1.7911496e-007
+9.4592000e+004    +1.7877015e-007
+9.4720000e+004    +1.5784532e-007
+9.4848000e+004    +1.6332288e-007
+9.4976000e+004    +1.7780607e-007
+9.5104000e+004    +1.7702942e-007
+9.5232000e+004    +1.6491833e-007
+9.5360000e+004    +1.6450745e-007
+9.5488000e+004    +1.5029424e-007
+9.5616000e+004    +1.7367947e-007
+9.5744000e+004    +1.8481937e-007
+9.5872000e+004    +1.9821860e-007
+9.6000000e+004    +1.7428579e-007
+9.6128000e+004    +1.7863772e-007
+9.6256000e+004    +1.8287369e-007
+9.6384000e+004    +1.8577639e-007
+9.6512000e+004    +1.8585146e-007
+9.6640000e+004    +1.6662905e-007
+9.6768000e+004    +1.9046919e-007
+9.6896000e+004    +1.7390043e-007
+9.7024000e+004    +1.5999287e-007
+9.7152000e+004    +1.4085313e-007
+9.7280000e+004    +1.5659691e-007
+9.7408000e+004    +1.8848908e-007
+9.7536000e+004    +1.8008080e-007
+9.7664000e+004    +1.5429458e-007
+9.7792000e+004    +1.5160721e-007
+9.7920000e+004    +1.6279921e-007
+9.8048000e+004    +1.8180522e-007
+9.8176000e+004    +1.8040932e-007
+9.8304000e+004    +1.5559192e-007
+9.8432000e+004    +1.5655721e-007
+9.8560000e+004    +1.6163084e-007
+9.8688000e+004    +1.8679764e-007
+9.8816000e+004    +1.8960891e-007
+9.8944000e+004    +1.4725946e-007
+9.9072000e+004    +1.7164817e-007
+9.9200000e+004    +1.8041091e-007
+9.9328000e+004    +1.6140048e-007
+9.9456000e+004    +1.4940186e-007
+9.9584000e+004    +1.6278973e-007
+9.9712000e+004    +1.7284206e-007
+9.9840000e+004    +1.6335875e-007
+9.9968000e+004    +1.7951463e-007
+1.0009600e+005    +1.7216269e-007
+1.0022400e+005    +1.4968082e-007
+1.0035200e+005    +1.7402630e-007
+1.0048000e+005    +1.4168218e-007
+1.0060800e+005    +1.7282366e-007
+1.0073600e+005    +1.6441626e-007
+1.0086400e+005    +1.7475850e-007
+1.0099200e+005    +1.8247236e-007
+1.0112000e+005    +1.6539452e-007
+1.0124800e+005    +1.6817148e-007
+1.0137600e+005    +1.7708074e-007
+1.0150400e+005    +1.6409993e-007
+1.0163200e+005    +1.2954042e-007
+1.0176000e+005    +1.6428436e-007
+1.0188800e+005    +1.6217818e-007
+1.0201600e+005    +1.7440887e-007
+1.0214400e+005    +1.7920840e-007
+1.0227200e+005    +1.7720153e-007
